%YAML 1.1
%TAG !u! tag:unity3d.com,2011:
--- !u!114 &11400000
MonoBehaviour:
  m_ObjectHideFlags: 0
  m_PrefabParentObject: {fileID: 0}
  m_PrefabInternal: {fileID: 0}
  m_GameObject: {fileID: 0}
  m_Enabled: 1
  m_EditorHideFlags: 0
  m_Script: {fileID: 11500000, guid: 39a097e0dc7385542bdd8b0a43eb4c5d, type: 3}
  m_Name: uOSSettings
  m_EditorClassIdentifier: 
  deviceName: 
  eth:
    tcp:
      port: 14984
      passivePortRange: 14985-15000
    udp:
      port: 15001
      passivePortRange: 15002-15017
    rtp:
      passivePortRange: 15018-15028
  bth:
    provider: AAAAAAAAAAAAAAAAAAAAAAAAAAAAAAAA
    client: AAAAAAAAAAAAAAAAAAAAAAAAAAAAAAAB
  websocket:
    hostName: localhost
    port: 8080
    timeout: 1000
  radarType: 0
  drivers:
  - ChallengeHostDriver
