%YAML 1.1
%TAG !u! tag:unity3d.com,2011:
--- !u!114 &11400000
MonoBehaviour:
  m_ObjectHideFlags: 0
  m_PrefabParentObject: {fileID: 0}
  m_PrefabInternal: {fileID: 0}
  m_GameObject: {fileID: 0}
  m_Enabled: 1
  m_EditorHideFlags: 0
  m_Script: {fileID: 11500000, guid: 9f261a84500f2ae4c9531fdaf811a38b, type: 3}
  m_Name: Database
  m_EditorClassIdentifier: 
  cards:
  - {fileID: 2800000, guid: 85883a00c1d35f549af19f9938ee639c, type: 3}
  - {fileID: 2800000, guid: be033c60508bef2468519e321328a3d2, type: 3}
  - {fileID: 2800000, guid: 73b628a0f455dd8428122d53811987d4, type: 3}
  - {fileID: 2800000, guid: da5572d0b7c2329479613b9b85084fe4, type: 3}
  - {fileID: 2800000, guid: 43f7c6e0a93f3744cbc9434994236e63, type: 3}
  - {fileID: 2800000, guid: f8fb77e030fcd1449ab21b06f5735a6e, type: 3}
  - {fileID: 2800000, guid: ecea82f06e739e24098b837de469fd65, type: 3}
  - {fileID: 2800000, guid: 33484c51c19ad7649bb105e6e2890020, type: 3}
  - {fileID: 2800000, guid: 9534e9c14e54d1f418f3a11d24506f22, type: 3}
  - {fileID: 2800000, guid: faf4d0d136f9cad49bc9a33b24e503f1, type: 3}
  - {fileID: 2800000, guid: bc7c5fe10dfd35c4aa04928df3b3ea90, type: 3}
  - {fileID: 2800000, guid: f841fff1a0123794a887009df92e2778, type: 3}
  - {fileID: 2800000, guid: eb249632d90294c40bddc71d518c9137, type: 3}
  - {fileID: 2800000, guid: 21f55a32b63735f47b5b0bb7dc6fd10b, type: 3}
  - {fileID: 2800000, guid: 7b47f8422eb473d46915a4fe9a94be22, type: 3}
  - {fileID: 2800000, guid: 750a5f42b5e2b4145803659bf49bb686, type: 3}
  - {fileID: 2800000, guid: 41ba4162ed36e19479059e6ca18bbe4a, type: 3}
  - {fileID: 2800000, guid: 190113c204710b848a7b65bbddbb58a7, type: 3}
  - {fileID: 2800000, guid: b6c178c2718bf5e4c89e61b7a1f88beb, type: 3}
  - {fileID: 2800000, guid: 882b2cc205023754e897cf40cece5ee2, type: 3}
  - {fileID: 2800000, guid: 627b19d20edefbe418cb634abf479916, type: 3}
  - {fileID: 2800000, guid: d4a91fd2f53ea9840a207bcf244243a0, type: 3}
  - {fileID: 2800000, guid: a8a93de2e45a62145bfda30ae84a0949, type: 3}
  - {fileID: 2800000, guid: 383b8103ab68a3344a62a9c98830df77, type: 3}
  - {fileID: 2800000, guid: 07826b234066cbe4585920d850264c6e, type: 3}
  - {fileID: 2800000, guid: bcc3d9435fb42864cb241ff3e0c39831, type: 3}
  - {fileID: 2800000, guid: 19234c4386a729840a7c85c29c1efbd2, type: 3}
  - {fileID: 2800000, guid: 04cca1b3e52c5fe4cb1e4214e684ed38, type: 3}
  - {fileID: 2800000, guid: 1e688cf333bd5ca4e819f1e52db7221f, type: 3}
  - {fileID: 2800000, guid: c0e0fcf32421a164c8a964d6379dc3c4, type: 3}
  - {fileID: 2800000, guid: 0adba924f85224a42b5aa717c206786b, type: 3}
  - {fileID: 2800000, guid: 4bfb5744f5a873c46a8bd89d5e733046, type: 3}
  - {fileID: 2800000, guid: 89f26f64a1d62ba408c61b32b8afdc6a, type: 3}
  - {fileID: 2800000, guid: e5fdb184101096946b6f548c526b998d, type: 3}
  - {fileID: 2800000, guid: 897adf84a9598c64895b2d6bad6a75ad, type: 3}
  - {fileID: 2800000, guid: 6812a694723ec19478cadf60b5980a39, type: 3}
  - {fileID: 2800000, guid: 0764a8f44d6cd584f8f95e90537f4635, type: 3}
  - {fileID: 2800000, guid: 7e8ffc055f2868744b6d101bf8e05a21, type: 3}
  - {fileID: 2800000, guid: 00f7c315ad08fe04e8ac271531f849c7, type: 3}
  - {fileID: 2800000, guid: 3d6e7a35126ebb04589110bce970ca4e, type: 3}
  - {fileID: 2800000, guid: ae2a4945b4cde754cbb05ecabf260290, type: 3}
  - {fileID: 2800000, guid: 2a989555980c5994e81fcbcc54b248b3, type: 3}
  - {fileID: 2800000, guid: 320874959b2efb3449b47a87c7aa7f41, type: 3}
  - {fileID: 2800000, guid: 8177b1065c5482841bf560602d296cdc, type: 3}
  - {fileID: 2800000, guid: 6c5ded0638e6b2c4e95dbdd7ea8ed4d3, type: 3}
  - {fileID: 2800000, guid: d3b34f16b2c06a44787b48259c53cfaf, type: 3}
  - {fileID: 2800000, guid: 2cb86a26a41fe6d4389c778c8d0c3cf0, type: 3}
  - {fileID: 2800000, guid: ced28746665b1b04fb50059f27903e65, type: 3}
  - {fileID: 2800000, guid: 39b0ef96469f1f64fb8df0d42fcf7153, type: 3}
  - {fileID: 2800000, guid: e28300c67c77ff74fac2086867a99300, type: 3}
  - {fileID: 2800000, guid: f6fd94c6307f24e4e920dd2408335fb1, type: 3}
  - {fileID: 2800000, guid: 790ec8d64847b99478a37224285d0080, type: 3}
  - {fileID: 2800000, guid: c18df1173378dad44adc9499f4b82ac6, type: 3}
  - {fileID: 2800000, guid: 12a9c3277e59df34cabdc545376a712a, type: 3}
  - {fileID: 2800000, guid: c776af275663a9645b7879ef6ce41713, type: 3}
  - {fileID: 2800000, guid: 26c235674c4cbf34cbd42b274512eada, type: 3}
  - {fileID: 2800000, guid: ddb93eb7a78bfac41b19878405717589, type: 3}
  - {fileID: 2800000, guid: 4af4cdc775a948645a9d4fe47a7d0382, type: 3}
  - {fileID: 2800000, guid: c77f67e7d4231094493fedf4d0a85704, type: 3}
  - {fileID: 2800000, guid: c85afa78b3505e2459ec2fd5791250cf, type: 3}
  - {fileID: 2800000, guid: e2b64b88bbcc4864a99169da3f8a977d, type: 3}
  - {fileID: 2800000, guid: 51b257981f3d9a445aa7ff2ce6fadff3, type: 3}
  - {fileID: 2800000, guid: 3394e9988e0ec15478eb20c0608bdf8f, type: 3}
  - {fileID: 2800000, guid: 8541190978b0ee44ab223a5a74ac82d4, type: 3}
  - {fileID: 2800000, guid: e4e7df592e2d0034ca46daee22c417aa, type: 3}
  - {fileID: 2800000, guid: 3b2f8879b861ff04399f7bc504329413, type: 3}
  - {fileID: 2800000, guid: e03533d9e19fe4949ac59ffcbc59c5b9, type: 3}
  - {fileID: 2800000, guid: 517acae9c133cd442b2eea3fd6be9743, type: 3}
  - {fileID: 2800000, guid: 6b22fef979944f741a1895c43e2b4385, type: 3}
  - {fileID: 2800000, guid: 3606a01a3faff114586067eecdadf948, type: 3}
  - {fileID: 2800000, guid: 05ef7b2ab96500c4f9078905c22125d4, type: 3}
  - {fileID: 2800000, guid: 5226e93a36133e149a9e7eeeb0a5b86f, type: 3}
  - {fileID: 2800000, guid: bd9a725ad89544d479bfeffb66e8b00f, type: 3}
  - {fileID: 2800000, guid: 37fa285a44b71a84eaa3e3e707ed15f4, type: 3}
  - {fileID: 2800000, guid: ca97876a4bf259b40a0cf9f754e3c54b, type: 3}
  - {fileID: 2800000, guid: 24e8bd7adc8a4f441a7deedcc683980b, type: 3}
  - {fileID: 2800000, guid: 4eb6ddda1be3d6042869780f47b854fb, type: 3}
  - {fileID: 2800000, guid: 579aa84b99f0fea40928cf2d0f99a747, type: 3}
  - {fileID: 2800000, guid: 7f899a5bac118cc49890ed8f7d00ae8b, type: 3}
  - {fileID: 2800000, guid: 0b9a3b6b8eafd594290b539fb2981b70, type: 3}
  - {fileID: 2800000, guid: 8bf5f4ab4ad150541aabfe57584defa6, type: 3}
  - {fileID: 2800000, guid: 199d85abbe614c741a6036253746f8f7, type: 3}
  - {fileID: 2800000, guid: 6b23a2db9bc538b4e93277285a78e987, type: 3}
  - {fileID: 2800000, guid: cb24e5db68228384eb70d9b009858905, type: 3}
  - {fileID: 2800000, guid: d5e5feeba7ab0d24da1e61c206772b4b, type: 3}
  - {fileID: 2800000, guid: d735998cf5ce3e746b11c11b36aef44c, type: 3}
  - {fileID: 2800000, guid: 6132e89cc621d2d4987592534bda5a50, type: 3}
  - {fileID: 2800000, guid: 68f84dbc1d1d78e428ab2735f7d17091, type: 3}
  - {fileID: 2800000, guid: 5d97875da1af86345b62ccf25ab60d62, type: 3}
  - {fileID: 2800000, guid: 4ba0fb7de337d5740b4eef77d63276f5, type: 3}
  - {fileID: 2800000, guid: 639b5d8d856230343b0b15596cd572d2, type: 3}
  - {fileID: 2800000, guid: d9c1b59d8b2204e48b7ae1cfaaff61fc, type: 3}
  - {fileID: 2800000, guid: 7f1e689df24b63f419ef14affad06323, type: 3}
  - {fileID: 2800000, guid: b6643a9df9ce52342bda164e419c7301, type: 3}
  - {fileID: 2800000, guid: b96785cdc818f2a41b63d46cdd98fe43, type: 3}
  - {fileID: 2800000, guid: 392512dd81490b34890420d7b7bfb9e7, type: 3}
  - {fileID: 2800000, guid: af38deedddec2074a92c8ea0be642d49, type: 3}
  - {fileID: 2800000, guid: 27896efd0038de34eb46de332b03a92e, type: 3}
  - {fileID: 2800000, guid: 539ff12eba50bbc44bb948f22f1866b1, type: 3}
  - {fileID: 2800000, guid: beb7b16e1469b6349ab3c2538cd5a438, type: 3}
  - {fileID: 2800000, guid: 5b8f507e42ec4184c9501003add2bdd8, type: 3}
  - {fileID: 2800000, guid: 4b2322cead77236439b5a980f80a5e1f, type: 3}
  - {fileID: 2800000, guid: 694cd6ee7d0123a47be4a2f122e4b885, type: 3}
  - {fileID: 2800000, guid: f0677c5fb90930043b69ac1456f7a284, type: 3}
  - {fileID: 2800000, guid: 9f71116f5d2b3c845bfa460a58ceb8db, type: 3}
  - {fileID: 2800000, guid: cdc0c8af4ea88874aa1c0b7996a9dfda, type: 3}
  - {fileID: 2800000, guid: f991d0cf7f5b22d438e320cd29dab749, type: 3}
  - {fileID: 2800000, guid: 8b24b1ffa18849146b59662042295f08, type: 3}
